Question,Answers,CorrectAnswer,Source,Topics_Covered,School,Dept,Course_Number,Year,Semester,Exam,Exam_Question_No,Question_Image,Ans_Images
Cilia occur in or on:,"epithelium of upper respiratory tract
 epithelium of kidney tubules
goblet cells
A and B
A and C",epithelium of upper respiratory tract,CU Boulder IPHY 3410 Spring 2014 Exam P01 #01,,CB,IPHY,3410,2014,FR,P01,1,,
The blood is an example of ________ because _____________:,"connective tissue; it has a large amount of extracellular matrix
an organism; it is composed of multiple organ systems
muscle tissue; it is capable of movement
organ; it is composed of multiple tissues
organ system; it is composed of multiple organs",connective tissue; it has a large amount of extracellular matrix,CU Boulder IPHY 3410 Spring 2014 Exam P01 #02,,CB,IPHY,3410,2014,FR,P01,2,,
Where are you likely to find a circumferential lamella?,"A. As the outermost lamella within each osteon.
Near the periosteum, in spongy bone tissue.
Near the periosteum, in compact bone tissue.
A and C
All of the above","Near the periosteum, in compact bone tissue.",CU Boulder IPHY 3410 Spring 2014 Exam P01 #03,,CB,IPHY,3410,2014,FR,P01,3,,
Which of the following is NOT found in the epidermis?,"Immune cells
Desmosomes
Mitochondria
Sensory cells
All of the above are found in the epidermis",All of the above are found in the epidermis,CU Boulder IPHY 3410 Spring 2014 Exam P01 #04,,CB,IPHY,3410,2014,FR,P01,4,,
The alveoli (surface responsible for gas exchange) in the lungs are lined with _______ epithelium.,"stratified squamous
simple squamous
simple columnar
pseudostratified columnar
transitional",simple squamous,CU Boulder IPHY 3410 Spring 2014 Exam P01 #05,,CB,IPHY,3410,2014,FR,P01,5,,
Which of the following is/are vascularized?,"Bone tissue
Epidermis
Mature cartilage
All of the above
A and C only",Bone tissue,CU Boulder IPHY 3410 Spring 2014 Exam P01 #06,,CB,IPHY,3410,2014,FR,P01,6,,
Elastic cartilage is found in:,"Artery walls.
Costal cartilage.
Trachea
Meniscus of knee joint
None of the above.",None of the above.,CU Boulder IPHY 3410 Spring 2014 Exam P01 #07,,CB,IPHY,3410,2014,FR,P01,7,,
Epithelia give rise to ,"Sebaceous glands
Sweet glands
Hair follicles
All exocrine glands
All of the above",All of the above,CU Boulder IPHY 3410 Spring 2014 Exam P01 #08,,CB,IPHY,3410,2014,FR,P01,8,,
"In compact bone,

C. blood vessels travel through bone matrix via canals called lacunae.D. lamellae from different osteons are connected by Haversian canals.E. Volkmann's canal runs through the central portion of each osteon","osteocytes are found embedded within Volkmann's canals.
lacunae are connected with each other by canaliculi.
blood vessels travel through bone matrix via canals called lacunae.
lamellae from different osteons are connected by Haversian canals.
Volkmann's canal runs through the central portion of each osteon",lacunae are connected with each other by canaliculi.,CU Boulder IPHY 3410 Spring 2014 Exam P01 #09,,CB,IPHY,3410,2014,FR,P01,9,,
The type of membrane that covers the outside (superficial) surface of the major visceral organs is called the:,"mucous membrane
serous membrane
glandular membrane
squamous membrane
none of the above",serous membrane,CU Boulder IPHY 3410 Spring 2014 Exam P01 #10,,CB,IPHY,3410,2014,FR,P01,10,,
The curliness of a hair is primarily a consequence of ,"The cross-sectional shape of the follicle
The amount of melanin in the hair
The growth rate of the hair
Secretions of the sebaceous glands
The activity of the arrector pilli",The cross-sectional shape of the follicle,CU Boulder IPHY 3410 Spring 2014 Exam P01 #11,,CB,IPHY,3410,2014,FR,P01,11,,
Endochondral formation of a long bone,"Continues in the epiphyseal plates throughout your life
Involves bone cells dying and being replaced by cartilage cells
Is completed prior to birth
Involves producing new bone tissue at the articular cartilages
Involves secreting bone matrix on calcified cartilage",Involves secreting bone matrix on calcified cartilage,CU Boulder IPHY 3410 Spring 2014 Exam P01 #12,,CB,IPHY,3410,2014,FR,P01,12,,
Which of the following is/are effective at resisting tension (pulling) forces:,"Intermediate filaments
Collagen
Keratin
All of the above
None of the above",All of the above,CU Boulder IPHY 3410 Spring 2014 Exam P01 #13,,CB,IPHY,3410,2014,FR,P01,13,,
Which epidermal layer is absent in thin skin?,"stratum spinosum
stratum granulosum
stratum corneum
stratum lucidum
stratum basale",stratum lucidum,CU Boulder IPHY 3410 Fall 2014 Exam P01 #14,,CB,IPHY,3410,2014,HB,P01,14,,
Which is descriptive of the dermis?,"contains blood vessels
contains oil glands
contains elastic fibers
A and C
All of the above",All of the above,CU Boulder IPHY 3410 Fall 2014 Exam P01 #15,,CB,IPHY,3410,2014,HB,P01,15,,
Hyaline cartilage can be found in the:,"articular surface of epiphysis
epiphyseal line
epiglottis
external ear
A and B",articular surface of epiphysis,CU Boulder IPHY 3410 Fall 2014 Exam P01 #16,,CB,IPHY,3410,2014,HB,P01,16,,
Adipose tissue is the dominant feature of:,"epidermis
dermis
hypodermis
basement membrane
stratum corneum",hypodermis,CU Boulder IPHY 3410 Fall 2014 Exam P01 #17,,CB,IPHY,3410,2014,HB,P01,17,,
"Suppose you are constructing a new epithelium. You take a layer of squamous cells, and on its apical surface you place a layer of columnar cells. According to the rules for naming epithelia,this would be a:","Stratified columnar epithelium
 Stratified squamous epithelium
Transitional epithelium
Simple columnar epithelium
Simple squamous epithelium",Stratified columnar epithelium,CU Boulder IPHY 3410 Fall 2014 Exam P01 #18,,CB,IPHY,3410,2014,HB,P01,18,,
Most of the bones of the skeleton are formed by:,"intramembranous bone formation
cartilaginous bone formation
periosteal bone formation
endochondral bone formation
appositional bone formation",endochondral bone formation,CU Boulder IPHY 3410 Fall 2014 Exam P01 #19,,CB,IPHY,3410,2014,HB,P01,19,,
"A thermometer breaks, and you unwisely handle the exposed liquid mercury, which passes through your skin and reaches your blood. Which of the following MUST the mercury pass through on its way to the blood?","Hypodermis
Stratum lucidum
Endothelium
B and C
All of the above",Endothelium,CU Boulder IPHY 3410 Fall 2014 Exam P01 #20,,CB,IPHY,3410,2014,HB,P01,20,,
Which of the following tissue types has the greatest capacity for regeneration and proliferation?,"Epithelium
Connective tissue
Nervous tissue
Muscle tissue
Collagen tissue",Epithelium,CU Boulder IPHY 3410 Fall 2014 Exam P01 #21,,CB,IPHY,3410,2014,HB,P01,21,,
Which of the following is (Are) found in spongy bone?,"Osteoid
Osteon
Central canal
All of the above
A and B",Osteoid,CU Boulder IPHY 3410 Fall 2014 Exam P01 #22,,CB,IPHY,3410,2014,HB,P01,22,,
Collagen is a significant component of:,"The ground substance in bone
The fibrous component of bone
Stratified squamous epithelium
A and B
None of the above",The fibrous component of bone,CU Boulder IPHY 3410 Fall 2014 Exam P01 #23,,CB,IPHY,3410,2014,HB,P01,23,,
"The diagram below shows a simplified cross section through the abdomen, like the 'body cavities and membranes' diagrams presented in lecture, but ignoring the outer layers. 'Space' indicates the space where food sits inside the stomach. The layers '1' and '2' are separated by a basement membrane and together comprise amulticellular membrane<br><br>

Assuming the stomach lining is typical of the digestive tract, what is layer 1?","Mucous membrane
Simple columnar epithelium
Stratified squamous epithelium
Areolar connective tissue
Mesothelium",Simple columnar epithelium,CU Boulder IPHY 3410 Fall 2014 Exam P01 #24,,CB,IPHY,3410,2014,HB,P01,24,IPHY3410CBHB14P0124Q.png,
"The diagram below shows a simplified cross section through the abdomen, like the 'body cavities and membranes' diagrams presented in lecture, but ignoring the outer layers. 'Space' indicates the space where food sits inside the stomach. The layers '1' and '2' are separated by a basement membrane and together comprise amulticellular membrane<br><br>

Layer 2 is:","Lamina propria
Muscle
Endothelium
Avascular
None of the above",Lamina propria,CU Boulder IPHY 3410 Fall 2014 Exam P01 #25,,CB,IPHY,3410,2014,HB,P01,25,IPHY3410CBHB14P0125Q.png,
The ground substance of all cartilage:,"Is mostly water
Contains glycosaminoglycan, which attracts water
Contains elastic fibers
A and B
All of the above",A and B,CU Boulder IPHY 3410 Fall 2014 Exam P01 #26,,CB,IPHY,3410,2014,HB,P01,26,,
"What do areolar connective tissue, reticular connective tissue, and adipose tissue have in common?","They are all specialized for defense against pathogens
They are all highly resilient to compressive forces
They are all loose connective tissues
They are all found in the skin
They are all non-vascularized tissues",They are all loose connective tissues,CU Boulder IPHY 3410 Fall 2014 Exam P01 #27,,CB,IPHY,3410,2014,HB,P01,27,,
206 is the number of ,"Bones in an infant
Closed body cavities
Tissue types of the body
Cell layers in thick skin
None of the above",None of the above,CU Boulder IPHY 3410 Spring 2014 Exam P01 #28,,CB,IPHY,3410,2014,FR,P01,28,,
"You are shrunk down to a microscopic size, magically transported into teh body of your roommate, and find that your feet are standing on the apical surface of mesothelium, and the rest of your body is surrounded by fluid. The fluid is:","The interstitial fluid of an areolar connective tissue.
The mucus lining on the mucosa of a hollow organ.
Serous fluid, which is produced mainly by secretion.
A filtrate of blood.
Blood plasma.",A filtrate of blood.,CU Boulder IPHY 3410 Spring 2014 Exam P01 #29,,CB,IPHY,3410,2014,FR,P01,29,,
Tactile epithelial calls are found in the:,"Stratum spinosum
Stratum corneum
Stratum lucidum
Stratum granulosum
Stratum basale",Stratum basale,CU Boulder IPHY 3410 Spring 2014 Exam P01 #30,,CB,IPHY,3410,2014,FR,P01,30,,
Osteoclasts,"Are more active than osteoblasts in the condition known as osteomalacia
Are more active than osteoblasts in the condition known as cutis laxa
Are confined within lacunae
Play an important role in the remodeling of bone tissue
None of the above",Play an important role in the remodeling of bone tissue,CU Boulder IPHY 3410 Spring 2014 Exam P01 #31,,CB,IPHY,3410,2014,FR,P01,31,,
"In the idealized diagram of body cavities and membranes, which of the following lists layers and/or spaces in correct order, from superficial to deep?","Visceral serosa, parietal serosa, mucosa
Cutaneous membrane, mucous membrane, visceral serosa
Parietal serosa, lumen, visceral serosa
Mucous membrane, parietal serosa, cutaneous membrane
Serous cavity, visceral serosa, mucosa","Serous cavity, visceral serosa, mucosa",CU Boulder IPHY 3410 Spring 2014 Exam P01 #32,,CB,IPHY,3410,2014,FR,P01,32,,
Blood vessels are a component of,"Bone tissue
Bones (i.e. the organs known as bones)
Cartilage tissue
A and B
All of the above",Bones (i.e. the organs known as bones),CU Boulder IPHY 3410 Spring 2014 Exam P01 #33,,CB,IPHY,3410,2014,FR,P01,33,,
What do mesothelium and endothelium have in common?,"They both are simple squamous epithelium
They both are stratified squamous epithelium
They both are part of the same continuous sheet of epithelium that is folded into inner and outer parts
They both are connective tissues
They both enclose spaces that are continuous with the outside world",They both are simple squamous epithelium,CU Boulder IPHY 3410 Spring 2014 Exam P01 #34,,CB,IPHY,3410,2014,FR,P01,34,,
 Mesenchyme gives rise to all,"Adipose tissue
Exocrine glands
Endocrine glands
Epithelia
All of the above",Adipose tissue,CU Boulder IPHY 3410 Spring 2014 Exam P01 #35,,CB,IPHY,3410,2014,FR,P01,35,,
Which of the following features is a component of compact bone tissue?,"Gap junctions
Chondrocytes
Trabeculae
Periosteum
Yellow marrow",Gap junctions,CU Boulder IPHY 3410 Spring 2014 Exam P01 #36,,CB,IPHY,3410,2014,FR,P01,36,,
Which of the following is NOT a component of the ground substance in ANY connective tissue?,"Glycosaminoglycan
Proteoglycan
Calcium phosphate
Elastic fibers
All of the above are found as a component of ground substance in at least some connective tissue",Elastic fibers,CU Boulder IPHY 3410 Spring 2014 Exam P01 #37,,CB,IPHY,3410,2014,FR,P01,37,,
"Start in anatomical position, and then pronate the forearm to the greatest extent possible. The thumb is now _____ to the palm of the hand.","Medial
Superior
Lateral
Inferior
Superficial",Medial,CU Boulder IPHY 3410 Spring 2014 Exam P02 #01,,CB,IPHY,3410,2014,FR,P02,1,,
Which of the following muscles is comprised of muscle tissue that has gap junctions?,"External anal sphincter
The muscle that flexes your elbow
Oblique muscle layer of the stomach
Muscles of the pharynx
None of the above",Oblique muscle layer of the stomach,CU Boulder IPHY 3410 Spring 2014 Exam P02 #02,,CB,IPHY,3410,2014,FR,P02,2,,
Different syndesmoses differ in degree of movability primarily due to differences in the ,"Amount of cartilage present in the joint
Orientation of the fibers
Depth of the socket
Amount of tissue fluid present
Length of the fibers",Length of the fibers,CU Boulder IPHY 3410 Spring 2014 Exam P02 #03,,CB,IPHY,3410,2014,FR,P02,3,,
Which of the following is not present in all synovial joints?,"Articular disc
Synovial fluid
Articular cartilage
Fibrous capsule
C and D",Articular disc,CU Boulder IPHY 3410 Spring 2014 Exam P02 #04,,CB,IPHY,3410,2014,FR,P02,4,,
The stomach,"Has fewer muscle layers than the small intestine
Is essential for survival
Produces hormone(s) that travel through the blood
Is the main site of digestion in the body
Secretes acid and enzyme(s), both produced by the same cell type",Produces hormone(s) that travel through the blood,CU Boulder IPHY 3410 Spring 2014 Exam P02 #05,,CB,IPHY,3410,2014,FR,P02,5,,
Example(s) of structures with an immune function include(s):,"Vermiform appendix
Peyer's patch
MALT
All of the above
None of the above",All of the above,CU Boulder IPHY 3410 Spring 2014 Exam P02 #06,,CB,IPHY,3410,2014,FR,P02,6,,
"In a skeletal muscle, the entire structure that is wrapped by an endomysium is known as a ","Cell
Myofibril
Muscle fiber
A and B
A and C",A and C,CU Boulder IPHY 3410 Spring 2014 Exam P02 #07,,CB,IPHY,3410,2014,FR,P02,7,,
Depression is an example of ,"Angular movement
Rotation
Movement around an axis
Inverted movement
None of the above",None of the above,CU Boulder IPHY 3410 Spring 2014 Exam P02 #08,,CB,IPHY,3410,2014,FR,P02,8,,
The metacarpophalangeal (knuckle) joints can perform movement around,"No axes
1 axis
2 axes
3 axes
3 axes, or 4 axes if the person is double-jointed",2 axes,CU Boulder IPHY 3410 Spring 2014 Exam P02 #09,,CB,IPHY,3410,2014,FR,P02,9,,
"When a muscle contracts, what is happening on the microscopic level?","Each actin filament coils up to shorten
Each sarcomere stays in the same length, but slides past other sarcomeres
Actin heads drag their way along a myosin filament
Satellite cells pull on muscle fibers
None of the above",None of the above,CU Boulder IPHY 3410 Spring 2014 Exam P02 #10,,CB,IPHY,3410,2014,FR,P02,10,,
"In the anatomical position, abducting the forearm at the elbow","Occurs in the frontal plane
Occurs in the sagittal plane
Occurs in the transverse plane
Is not possible without damaging the joint
Is also known as pronation",Is not possible without damaging the joint,CU Boulder IPHY 3410 Spring 2014 Exam P02 #11,,CB,IPHY,3410,2014,FR,P02,11,,
The rotator cuff is an example of ,"A pivot joint
A ball-and-socket joint
Tendons that add stability to a joint
Ligaments that add stability to a joint
A modified joint",Tendons that add stability to a joint,CU Boulder IPHY 3410 Spring 2014 Exam P02 #12,,CB,IPHY,3410,2014,FR,P02,12,,
"Place the following structures in correct order from proximal to distal: <br><br>
(1) Jejunum <br>
(2) Duodenum <br>
(3) Sigmoid colon <br>
(4) Transverse colon <br>
(5) Ileocecal valve <br>","(2)\(\rightarrow\)(1)\(\rightarrow\)(5)\(\rightarrow\)(3)\(\rightarrow\)(4)
(1)\(\rightarrow\)(2)\(\rightarrow\)(5)\(\rightarrow\)(4)\(\rightarrow\)(3)
(2)\(\rightarrow\)(1)\(\rightarrow\)(5)\(\rightarrow\)(4)\(\rightarrow\)(3)
(5)\(\rightarrow\)(2)\(\rightarrow\)(1)\(\rightarrow\)(4)\(\rightarrow\)(3)
(5)\(\rightarrow\)(1)\(\rightarrow\)(2)\(\rightarrow\)(3)\(\rightarrow\)(4)",(2)\(\rightarrow\)(1)\(\rightarrow\)(5)\(\rightarrow\)(4)\(\rightarrow\)(3),CU Boulder IPHY 3410 Spring 2014 Exam P02 #13,,CB,IPHY,3410,2014,FR,P02,13,,
"In muscle anatomy, an antagonist means a","Muscle that opposes the action of another muscle
Fascicle that opposes the action of another fascicle
Protein that prevents excessive stretch of a muscle fiber
Nerve cell that inhibits contraction of a muscle fiber
Muscle that has major responsibility for a particular action",Muscle that opposes the action of another muscle,CU Boulder IPHY 3410 Spring 2014 Exam P02 #14,,CB,IPHY,3410,2014,FR,P02,14,,
Very rapid turnover of cells occurs in,"Submucosa of the stomach
Mucosal epithelium of the small intestine
Epithelium of the serosa
Synovial membrane
Cardiac muscle tissue",Mucosal epithelium of the small intestine,CU Boulder IPHY 3410 Spring 2014 Exam P02 #15,,CB,IPHY,3410,2014,FR,P02,15,,
"You have a nightmare in which you are shrunk down to microscopic size and are standing on the epithelium of a mesentery, surrounded by the peritoneal cavity. Do you have any hope of escaping to the outside world? (You are not allowed to cross through any tissue layers.)","Yes, you just need to keep walking until you end up walking on the epithelium of the GI tract mucosa
Yes, you just need to follow the blood vessels that travel through the mesentery
Yes, you just need to find one of the intraperitoneal organs.
Yes, you just need to enter a gastric gland
No",No,CU Boulder IPHY 3410 Spring 2014 Exam P02 #16,,CB,IPHY,3410,2014,FR,P02,16,,
