Question,Answers,CorrectAnswer,Source,Topics_Covered,School,Dept,Course_Number,Year,Semester,Exam,Exam_Question_No,Question_Image,Ans_Images
"Two point particles, one with charge  \(8 \times {10^{ - 9}}C\) and the other with charge  \( - 2 \times {10^{ - 9}}C\), are separated by 4 m. The magnitude of the electric field (in N/C) midway between them is:","\(9 \times {10^9}\)
13,500
135,000
\(36 \times {10^{ - 9}}\)
22.5",22.5,"Purdue PHYS 241 Fall 2006 Exam 1 #1","Electric fields",PU,PHYS,241,2006,HB,01,01,,
"A 3.5 cm radius hemisphere contains a total charge of  \(6.6 \times {10^{ - 7}}C\). The flux through the spherical portion of the surface is   \(9.8 \times {10^4}N \cdot {m^2}/C\). The flux  \(\left( {N \cdot {m^2}/C} \right)\) through the flat base is:  ","0
\( + 2.3 \times {10^4}\)
\( - 2.3 \times {10^4}\)
\( - 9.8 \times {10^4}\)
\( + 9.8 \times {10^4}\)","\( - 2.3 \times {10^4}\)","Purdue PHYS 241 Fall 2006 Exam 1 #2","Electric fields",PU,PHYS,241,2006,HB,01,02,,
"A parallel-plate capacitor in a vacuum has a plate area of \(0.2{m^2}\) and a plate separation of \(0.1 mm\). If the charge on each plate has a magnitude of  \(4 \times {10^{ - 6}}C\) the potential difference across the plates is approximately:","0
\(4 \times {10^{ - 2}}V\)
\(1 \times {10^2}V\)
\(2 \times {10^2}V\)
\(4 \times {10^8}V\)","\(2 \times {10^2}V\)","Purdue PHYS 241 Fall 2006 Exam 1 #3",Capacitors,PU,PHYS,241,2006,HB,01,03,,
"A certain capacitor, in series with a  \(720\Omega \), is being charged. At the end of 10 ms its charge is half the final value. The capacitance is about:","\(9.6\mu F\)
\(14\mu F\)
\(20\mu F\)
\(7.2\mu F\)
\(10F\)","\(20\mu F\)","Purdue PHYS 241 Fall 2006 Exam 1 #8","Capacitors, Capacitance, time constant, RC circuits",PU,PHYS,241,2006,HB,01,08,,
" \(V(x,y,z)\) are equipotential surfaces expressed in x, y, and z. 
  \[V(x,y,z) = {x^2}y + {y^2}x + zxy\] 
Find the x component of  \(\mathord{\buildrel{\lower3pt\hbox{$\scriptscriptstyle\rightharpoonup$}} 
\over E} (x,y,z)\) at the point P(2, -4, 6).","-24 V/m
10 V/m
-56 V/m
-8 V/m
24 V/m","24 V/m","Purdue PHYS 241 Fall 2006 Exam 1 #9","Equipotential surfaces, potential difference, voltage, electric fields",PU,PHYS,241,2006,HB,01,09,,
"Two long, charged, thin-walled, concentric cylindrical shells have radii of 3.0 cm and 6.0 cm. The charge per unit length is  \(5 \times {10^{ - 6}}C/m\) on the inner shell and  \( - 7 \times {10^{ - 6}}C/m\) on the outer shell. Find the magnitude of the electric field at r = 8.0 cm, where r is the radial distance from the common axis.","\(2.3 \times {10^6}N/C\)
\(0.8 \times {10^6}N/C\)
\(4.5 \times {10^5}N/C\)
\(2.7 \times {10^5}N/C\)
\(73 \times {10^4}N/C\)","\(4.5 \times {10^5}N/C\)","Purdue PHYS 241 Fall 2006 Exam 1 #12","Electric fields",PU,PHYS,241,2006,HB,01,12,,
"Two charges \({Q_1}\) and \({Q_2}\) are at rest a distance of 66 cm apart. How much work must be done to slowly move the charges to a separation of 33 cm?
 \({Q_1} =  + 6.6 \times {10^{ - 9}}C\) and   \({Q_2} =  - 3.3 \times {10^{ - 9}}C\)","\( - 3.0 \times {10^{ - 7}}J\)
\(8.9 \times {10^{ - 7}}J\)
\( - 2.0 \times {10^{ - 6}}J\)
\( - 8.9 \times {10^{ - 7}}J\)
\(3.0 \times {10^{ - 7}}J\)","\( - 3.0 \times {10^{ - 7}}J\)","Purdue PHYS 241 Fall 2006 Exam 1 #15","Electric Work, potential energy",PU,PHYS,241,2006,HB,01,15,,
"A 15.0 k\(\Omega\) resistor and a discharged capacitor are connected in series with no applied voltage. A 12.0 V potential difference is suddenly applied across them. The potential difference across the capacitor rises to 5.00 V in 1.30&mu;s. What is the time constant of the circuit?","1.61ps
2.41&mu;s
1.30&mu;s
0.22 ms
1.0 ns",2.41&mu;s,"Purdue PHYS 241 Fall 2006 Exam 1 #20","Time constant, RC circuit",PU,PHYS,241,2006,HB,01,20,,
"A small positive test charge \(+q\) flies by a large positive unmovable charge \(+Q\) along the trajectory shown. How do the magnitudes of the acceleration at points A, B, and C (which we denote as \(a_A,\:a_B,\:a_C\)) compare with each other?","\(a_C < a_A < a_B\)
\(a_C = a_A = a_B\)
\(a_A < a_B < a_C\)
\(a_C < a_A = a_B\)
\(a_C < a_B < a_A\)","\(a_A < a_B < a_C\)","CU Boulder PHYS 1120 Fall 2007 Exam 01 #01",,CB,PHYS,1120,2007,HB,01,01,PHYS1120CBHB070101Q.png,
"The electric field throughout a region of space is given by the formula \[\overrightarrow{E}=Axy\widehat{i}+Bx\widehat{j}\] where (x,y) are the coordinates of a point in space, and A, B are constants.<br>
What is \(\overrightarrow{E}\bullet\widehat{j}\)?","\(Axy\)
\(Bx^2\)
\(Bx\)
\(B\)
None of these","\(Bx\)","CU Boulder PHYS 1120 Fall 2007 Exam 01 #0",,CB,PHYS,1120,2007,HB,01,02,,
"Three charges are placed as shown. If released, the charge at the bottom of the picture will initially start accelerating in what direction?","left
right
up
down
the acceleration is zero",right,"CU Boulder PHYS 1120 Fall 2007 Exam 01 #03",,CB,PHYS,1120,2007,HB,01,03,PHYS1120CBHB070103Q.png,
"A balloon of mass \(M\) has been positively charged (so that its charge is \(Q\)) and placed next to a vertical blackboard, as shown. The blackboard polarizes, so the balloon sticks to it. The friction coefficient between the balloon and the blackboard is \(\mu\), and we will assume that the electric field created by the blackboard is uniform and directed towards the blackboard perpendicular to it. What is the magnitude \(E\) of this electric field?","\(E=\frac{Q}{\mu Mg}\)
\(E=\frac{\mu Q}{Mg}\)
\(E=\frac{\mu M}{gQ}\)
\(E=\frac{\mu Mg}{Q}\)
\(E=\frac{Mg}{\mu Q}\)","\(E=\frac{Mg}{\mu Q}\)","CU Boulder PHYS 1120 Fall 2007 Exam 01 #04",,CB,PHYS,1120,2007,HB,01,04,PHYS1120CBHB070104Q.png,
"Three positive charges are placed as shown. If released, which way will the charge \(+q\) initially accelerate?","right
left
the acceleration is zero
down
up",left,"CU Boulder PHYS 1120 Fall 2007 Exam 01 #05",,CB,PHYS,1120,2007,HB,01,05,PHYS1120CBHB070105Q.png,
"A point charge with mass m and positive charge q is suspended on a massless string in a uniform horizontal electric field of magnitude E. The electric field is adjusted until the string makes a 45 degree angle with the vertical. Assuming we know E and q,find the mass of the object. (HINT: draw a free-body diagram.)","\(\frac{qE}{g}\)
\(\frac{qE\sqrt{2}}{g}\)
\(\frac{g}{qE\sqrt{2}}\)
\(\frac{qE}{g\sqrt{2}}\)
None of these is correct","\(\frac{qE}{g}\)","CU Boulder PHYS 1120 Fall 2007 Exam 01 #06",,CB,PHYS,1120,2007,HB,01,06,PHYS1120CBHB070106Q.png,
"A uniformly-charged insulating rod is bent in the shape of a semi-circle of radius R. The total charge on the rod is +Q. There are no other charges nearby. What can you say about the magnitude E of the electric field at the center of the semi-circle?","\(E=\frac{kQ}{R^2}\)
\(E<\frac{kQ}{R^2}\)
\(E>\frac{kQ}{R^2}\)
Not enough information to decide","\(E<\frac{kQ}{R^2}\)","CU Boulder PHYS 1120 Fall 2007 Exam 01 #07",,CB,PHYS,1120,2007,HB,01,07,PHYS1120CBHB070107Q.png,
"A uniformly charged rod with linear charge density \(\lambda\) is positioned vertically as shown, so that the distance between its lower end and the origin is \(L\). What is the magnitude of the electric field \(\vert dE\vert\) at the origin (O), created just by a small piece of the rod of length \(dl\) located at a height \(H\) above the lower end of the rod?","\(\vert dE\vert=k\frac{dl}{H^2+L^2}\)
\(\vert dE\vert=k\frac{d\lambda}{H^2+L^2}\)
\(\vert dE\vert=k\frac{dl}{(H^2+L^2)^\frac{3}{2}}\)
\(\vert dE\vert=k\frac{L\lambda dl}{(H^2+L^2)^\frac{3}{2}}\)
\(\vert dE\vert=k\frac{\lambda dl}{H^2+L^2}\)","\(\vert dE\vert=k\frac{\lambda dl}{H^2+L^2}\)","CU Boulder PHYS 1120 Fall 2007 Exam 01 #08",,CB,PHYS,1120,2007,HB,01,08,PHYS1120CBHB070108Q.png,
"Two boxes of unequal masses \(M_1\) and \(M_2\) have been placed on a flat \(\underline{frictionless}\) surface some distance away from each other, and given unequal positive charges \(Q_1\) and \(Q_2\). The first box is heavier than the second, \(M_1>M_2\), however the charge on the first box is smaller, \(Q_1 < Q_2\).<br>
Which of the following statements are true?","Both boxes start accelerating, and the first one \((M_1)\) has a bigger acceleration.
Both boxes start accelerating, and the second one \(M_2\) has bigger acceleration.
The accelerations are equal and nonzero.
Neither of the boxes accelerate.
None of the above","Both boxes start accelerating, and the second one \(M_2\) has bigger acceleration.","CU Boulder PHYS 1120 Fall 2007 Exam 01 #09",,CB,PHYS,1120,2007,HB,01,09,PHYS1120CBHB070109Q.png,
"Two rigid rods with charges attached at the end are arranged as shown. Do the rods repel each other, attract each other, or neither attract nor repel? (In answering this question, neglect gravity and friction)","Attract
Repel
Neither attract nor repel. If released, the rods will remain still
Neither attract nor repel. If released, the rods will nevertheless move
Impossible to tell from the information given",Attract,"CU Boulder PHYS 1120 Fall 2007 Exam 01 #10",,CB,PHYS,1120,2007,HB,01,10,PHYS1120CBHB070110Q.png,
"An electroscope (like the one shown on the picture) is negatively charged by touching it with a negative glass rod. The electroscope leaves spread apart and the glass rod is removed. Then a positively charged plastic rod is brought closer to the top of the electroscope , but it does not touch. What happens to the leaves as the positive rod starts to approach?","The leaves spread farther apart
The leaves get closer together
One leaf moves higher, the other lower
The leaves don't move","The leaves get closer together","CU Boulder PHYS 1120 Fall 2007 Exam 01 #11",,CB,PHYS,1120,2007,HB,01,11,PHYS1120CBHB070111Q.png,
"Two positive \(+Q\) charges and one negative \(-2Q\) charge are placed as shown on the picture. An electron of negative charge \(-e\) is placed as shown. Where is the force acting on the electron directed?","To the right (positive x direction)
Upwards (positive y direction)
To the left (negative x direction)
Downwards (negative y direction)
The force is zero","To the right (positive x direction)","CU Boulder PHYS 1120 Fall 2007 Exam 01 #12",,CB,PHYS,1120,2007,HB,01,12,PHYS1120CBHB070112Q.png,
"Two large parallel planes are shown edge-on. The left plane has positive charge density \(-\eta\). How do the magnitudes of the electric field at points A, B and C compare with each other?","\(E_A < E_B = E_C\)
\(E_A = E_B > E_C\)
\(E_A > E_B > E_C\)
\(E_A < E_B < E_C\)
\(E_A < E_C < E_B\)","\(E_A < E_B = E_C\)","CU Boulder PHYS 1120 Fall 2007 Exam 01 #13",,CB,PHYS,1120,2007,HB,01,13,PHYS1120CBHB070113Q.png,
" ","A
B
C
D
E",D,"CU Boulder PHYS 1120 Fall 2007 Exam 01 #14",,CB,PHYS,1120,2007,HB,01,14,PHYS1120CBHB070114Q.png,
"An electric field is given by the expression \[\overrightarrow{E}=5\widehat{i}-4\widehat{j}\]<br>
(given in units of N/C).What is the flux of the electric field though the surface shown on the picture (a horizontal square, sitting in the x-y plane, with a side of one meter long)?","\(-4\:N\:m^2/C\)
\(5\:N\:m^2/C\)
\(0\:N\:m^2/C\)
\(-20\:N\:m^2/C\)
Impossible to determine from the information given","\(0\:N\:m^2/C\)","CU Boulder PHYS 1120 Fall 2007 Exam 01 #15",,CB,PHYS,1120,2007,HB,01,15,PHYS1120CBHB070115Q.png,
"An insulating sphere has been charged throughout its volume, with the charge density \(\rho\). Subsequently the sphere is broken into two pieces, with the first piece smaller and the second piece larger. Is the charge density of the first piece \(\rho_1\) bigger or smaller than the charge density of the second piece \(\rho_2\)?","\(\rho_1=\rho_2\)
\(\rho_1>\rho_2\)
\(\rho_1<\rho_2\)
Impossible to tell with the information given","\(\rho_1=\rho_2\)","CU Boulder PHYS 1120 Fall 2007 Exam 01 #16",,CB,PHYS,1120,2007,HB,01,16,,
"The picture shows the electric field lines in some region in space. Compare the magnitude of the electric field at points A, B, and C.","\(E_A<\ E_B<\ E_C\)
\(E_A<\ E_B=E_C\)
\(E_A=E_B>E_C\)
\(E_A>E_B>E_C\)
\(E_A<\ E_C<\ E_B\)","\(E_A>E_B>E_C\)","CU Boulder PHYS 1120 Fall 2007 Exam 01 #17",,CB,PHYS,1120,2007,HB,01,17,PHYS1120CBHB070117Q.png,
"Four charges are arranged at the vertices of the square as shown. Which was does the electric field at the center point?","Right
Up
Left
Down
The field is zero","The field is zero","CU Boulder PHYS 1120 Fall 2007 Exam 01 #18",,CB,PHYS,1120,2007,HB,01,18,PHYS1120CBHB070118Q.png,
"A small surface is completely enclosed by a larger surface. The volume inside the
first surface is \(V_1\) . The volume between the first and the second surface is \(V_2\) . The
total outward flux through the inner surface is positive, but the total outward flux
through the outer surface is negative.
What is the sign of the total charge contained within the volume \(V_2\) ?","Positive
Zero
Negative
Impossible to tell",Negative,"CU Boulder PHYS 1120 Fall 2007 Exam 02 #01",,CB,PHYS,1120,2007,HB,02,01,PHYS1120CBHB070201Q.png,
"Two uniformly charged rods are each bent into a quarter circle of radius \(R\). The left
rod is positive, with total charge \(+3Q\) (smeared out uniformly along the rod). The right rod is negative, with total charge \(-Q\) (again smeared out uniformly). What is the potential at the point \(A\), located at the center of the circle formed by the two rods?","\(V=\pi k Q/R\)
\(V= k Q/R\)
\(V=2k Q/R\)
\(V=0\)
\(V= 2 \pi k Q/R\)","\(V=2k Q/R\)","CU Boulder PHYS 1120 Fall 2007 Exam 02 #0",,CB,PHYS,1120,2007,HB,02,02,PHYS1120CBHB070202Q.png,
"A uniformly charged rod with linear charge density \(位\) is positioned vertically as
shown, so that the distance between its lower end and the origin is \(L\). Its height is \(H\).
What is the correct formula for the electric potential at the origin?","\(V=k \int_{0}^{H} dy \frac{\lambda}{L^2+y^2}\)
\(V=k \int_{0}^{L} dy \frac{\lambda}{\sqrt{H^2+y^2}}\)
\(V=k \int_{0}^{L} dy \frac{\lambda}{H^2+y^2}\)
\(V=k \int_{0}^{H} dy \frac{\lambda L}{(L^2+y^2)^\frac{3}{2}}\)
\(V=k \int_{0}^{H} dy \frac{\lambda}{\sqrt{L^2+y^2}}\)","\(V=k \int_{0}^{H} dy \frac{\lambda}{\sqrt{L^2+y^2}}\)","CU Boulder PHYS 1120 Fall 2007 Exam 02 #03",,CB,PHYS,1120,2007,HB,02,03,PHYS1120CBHB070203Q.png,
"A circuit consists of a battery and three resistors, as shown. The current through
each of the resistors is \(I\). What is the current through the battery?","0
I
(1/3)I
3I
None of these",3I,"CU Boulder PHYS 1120 Fall 2007 Exam 02 #04",,CB,PHYS,1120,2007,HB,02,04,PHYS1120CBHB070204Q.png,
"A wire carries a current of 16A. How many electrons pass through this wire in 1 minute? 
(Please note: that's 1 minute, not 1 second)","16
\(1.5 \cdot 10^{-16}\)
\(1.0 \cdot 10^{20}\)
\(1.6 \cdot 10^{-19}\)
\(6.0 \cdot 10^{21}\)","\(6.0 \cdot 10^{21}\)","CU Boulder PHYS 1120 Fall 2007 Exam 02 #05",,CB,PHYS,1120,2007,HB,02,05,,
"Four charges are located at the corners of this square, as shown. What is the electric potential at the very center of the square? (d=r/2)","\(V=-2k\frac{Q}{\sqrt{2}d}\)
\(V=-6k\frac{Q}{\sqrt{2}d}\)
\(V=-k\frac{Q}{\sqrt{2}d}\)
V = 0
\(V=k\frac{Q}{\sqrt{2}d}\)","\(V=-2k\frac{Q}{\sqrt{2}d}\)","CU Boulder PHYS 1120 Fall 2007 Exam 02 #06",,CB,PHYS,1120,2007,HB,02,06,PHYS1120CBHB070206Q1.png,
"Consider moving a proton from point B to point C with constant velocity.
How much \(external\) work would this take? (NOTE: answers are in units of eV. Be
careful to think about both sign and magnitude)","\(-1.6 \cdot 10^{-19}\) eV
+6 eV
-6 eV
+3 eV
-3 eV","+6 eV","CU Boulder PHYS 1120 Fall 2007 Exam 02 #07",,CB,PHYS,1120,2007,HB,02,07,PHYS1120CBHB070207Q.png,
"An electron is injected between the plates of a large parallel plate capacitor, exactly
in the middle, with initial kinetic energy KE(i) just as it enters the capacitor.
Assume the magnitude of the electric field between the plates has a uniform value \(E\)
between the plates.
Which expression below gives the final kinetic energy KE(f) of the electron, just
before it hits the lower plate?","\(KE_{(f)}=KE_{(i)}+eEd/2\)
\(KE_{(f)}=KE_{(i)}-eEd/2\)
\(KE_{(f)}=KE_{(i)}+eEd\)
\(KE_{(f)}=KE_{(i)}-eEd\)
\(KE_{(f)}=KE_{(i)}\)","\(KE_{(f)}=KE_{(i)}+eEd/2\)","CU Boulder PHYS 1120 Fall 2007 Exam 02 #08",,CB,PHYS,1120,2007,HB,02,08,PHYS1120CBHB070208Q1.png,
"You have two resistors, each made of identical materials. The second one, \(R_2\) is twice as long, but only half as thick as the other (that means its diameter is half as big). What is the ratio of their resistances?","\(R_2/R_1=8\)
\(R_2/R_1=4\)
\(R_2/R_1=2\)
\(R_2/R_1=1\)
\(R_2/R_1=1/2\)","\(R_2/R_1=8\)","CU Boulder PHYS 1120 Fall 2007 Exam 02 #09",,CB,PHYS,1120,2007,HB,02,09,PHYS1120CBHB070209Q.png,
"The figure on the right shows Electric field lines in a region of space. Which one of the figures below best shows the equipotential contour lines in this same region of space?","A
B
C
D
E",B,"CU Boulder PHYS 1120 Fall 2007 Exam 02 #10",,CB,PHYS,1120,2007,HB,02,10,PHYS1120CBHB070210Q12.png,
"An ideal parallel plate capacitor has charge Q on its top plate, and -Q on the bottom plate. A thick neutral metal slab sits midway between the plates, as shown. The capacitor plates are electrically isolated, as is the metal slab. The metal slab has no net charge.<br><br>
How would the magnitude of the electric field at point A (located in the empty space between the lower capacitor plate and the metal slab) change if the slab were removed? (Ignore edge effects)","Increase
Remain the same
Decrease
Impossible to tell","Remain the same","CU Boulder PHYS 1120 Fall 2007 Exam 02 #11",,CB,PHYS,1120,2007,HB,02,11,PHYS1120CBHB070211Q.png,
"An ideal parallel plate capacitor has charge Q on its top plate, and -Q on the bottom plate. A thick neutral metal slab sits midway between the plates, as shown. The capacitor plates are electrically isolated, as is the metal slab. The metal slab has no net charge.
<br><br>
How would the stored energy of the capacitor change if the slab were removed?","Increase
Remain the same
Decrease
Impossible to tell",Increase,"CU Boulder PHYS 1120 Fall 2007 Exam 02 #12",,CB,PHYS,1120,2007,HB,02,12,PHYS1120CBHB070212Q.png,
"Two charges, \(+Q\) and \(+2Q\), are arranged as shown. what is the potential at the point \(A\)?","2kQ/r
3kQ/(2r)
3kQ/r
kQ/r
0",2kQ/r,"CU Boulder PHYS 1120 Fall 2007 Exam 02 #14",,CB,PHYS,1120,2007,HB,02,14,PHYS1120CBHB070214Q1.png,
"The circuit shown on the picture includes three identical capacitors, each having the
same capacitance \(C\). What is the effective total capacitance of this circuit?","C
2C
3C
3C/2
2C/3",3C/2,"CU Boulder PHYS 1120 Fall 2007 Exam 02 #15",,CB,PHYS,1120,2007,HB,02,15,PHYS1120CBHB070215Q.png,
"The circuit shown on the picture includes three identical capacitors, each having the same capacitance \(C\). How does the charge \(Q_1\) on capacitor #1 (the one on top) compare with the charge
\(Q_2\) on capacitor #2?","\(Q_1/Q_2=1\)
\(Q_1/Q_2=3\)
\(Q_1/Q_2=2/3\)
\(Q_1/Q_2=2\)
\(Q_1/Q_2=3/2\)","\(Q_1/Q_2=2\)","CU Boulder PHYS 1120 Fall 2007 Exam 02 #16",,CB,PHYS,1120,2007,HB,02,16,PHYS1120CBHB070216Q.png,
"A charged rod with total positive charge \(Q\) uniformly distributed along its length is positioned as shown.The point \(A\) is located a distance \(r\) below the center of the rod. (It is a distance \(L\) from the two ENDS) What can you conclude about the electric potential \(V_A\) at point \(A\)","\(V_A < kQ/L\)
\(V_A = kQ/L\)
\(kQ/L < V_A < kQ/r\)
\(V_A = kQ/r\)
\(V_A > kQ/r\)","\(kQ/L < V_A < kQ/r\)","CU Boulder PHYS 1120 Fall 2007 Exam 02 #17",,CB,PHYS,1120,2007,HB,02,17,PHYS1120CBHB070217Q.png,
"The figure shows some equipotential lines in a region of space. A proton is released from rest at point A. In which direction will it initially start moving? Assume V=0 at infinity","right
up
down
the proton will remain at rest
the proton will drift along the 0V contour line, in either direction",down,"CU Boulder PHYS 1120 Fall 2007 Exam 02 #13",,CB,PHYS,1120,2007,HB,02,13,PHYS1120CBHB070213Q.png,
"At which of the three labeled points (A, B, and C) is the electric field the strongest?","At the point A
At the point B
At the point C
It is equally strong at points B and C (but is stronger at both of those than at point A)
It is equally strong at points A and B (but is stronger at both of those than at point C)","At the point B","CU Boulder PHYS 1120 Fall 2007 Exam 02 #18",,CB,PHYS,1120,2007,HB,02,18,PHYS1120CBHB070218Q.png,
"A coil of wire with \(N = 2\) loops is attached to a \(1Ω\) resistor
and is oriented perpendicular to a uniform magnetic field as
shown. At a particular instant, the magnitude of the magnetic
field is \(B = 0.50\: T\) and the field is DECREASING at a rate of
\(0.05\: T/s\). The area of each loop is \(A = 0.50\: m^2\) . What is the
magnitude of the current through the resistor?","1.0 mA
20 mA
50 mA
zero
None of these","50 mA","CU Boulder PHYS 1120 Spring 2003 Exam 03 #01",,CB,PHYS,1120,2003,FR,03,01,PHYS1120CBFR030301Q.png,
"A coil of wire with \(N = 2\) loops is attached to a \(1Ω\) resistor
and is oriented perpendicular to a uniform magnetic field as
shown. At a particular instant, the magnitude of the magnetic
field is \(B = 0.50\: T\) and the field is DECREASING at a rate of
\(0.05\: T/s\). The area of each loop is \(A = 0.50\: m^2\) . What is the
direction of the current through the resistor?","up \(\uparrow\)
down \(\downarrow\)
current is zero","up \(\uparrow\)","CU Boulder PHYS 1120 Spring 2003 Exam 03 #02",,CB,PHYS,1120,2003,FR,03,02,PHYS1120CBFR030302Q.png,
"A hand-cranked electrical generator is attached to a resistor \(R\). The generator is turned
at a constant rate which causes an AC current to flow in the resistor. Suddenly, the value
of the resistance \(R\) \(decreases\). Does the generator get easier or harder to turn?","Easier
Harder
No change in difficulty",Harder,"CU Boulder PHYS 1120 Spring 2003 Exam 03 #03",,CB,PHYS,1120,2003,FR,03,03,,
"A step-down transformer has \(N_P =1000\) turns in the primary coil and \(N_S =100\) turns in
the secondary coil. The primary side is plugged into a standard 120V AC outlet, and the
secondary side is attached to a \(R = 10\: Ω\) resistor. To two-place precision, what is the rms
current drawn from the outlet?","0.24 A
0.12 A
1.2 A
2.4 A
None of these","0.12 A","CU Boulder PHYS 1120 Spring 2003 Exam 03 #04",,CB,PHYS,1120,2003,FR,03,04,,
"A solenoid has circular cross-section and radius \(R\). The current of the solenoid is
steadily increasing , creating a uniform magnetic field within the solenoid which is increasing at a steady rate, \(dB/dt =\: constant\). What is the magnitude of the electric field \(E\) at a point \(\underline{outside}\) the solenoid a distance \(r\) (r>R) from the center of the solenoid?","zero
\(\pi R^2 \Large \frac{dB}{dt}\)
\(\Large \frac{R^2\:dB}{2r\:dt}\)
\(\Large \frac{2\pi r\:dB}{R\:dt}\)
None of these","\(\Large \frac{R^2\:dB}{2r\:dt}\)","CU Boulder PHYS 1120 Spring 2003 Exam 03 #05",,CB,PHYS,1120,2003,FR,03,05,PHYS1120CBFR030305Q.png,
"An electron \((q = –e)\) is released from rest in a region of space where there is constant, uniform, electric field \(\vec{E}\) , and a constant, uniform magnetic field \(\vec{B}\) . The electric field points up and the magnetic field points into the page in the diagram. Which, if any, of the four paths shown will the electron follow? (The four paths are in the plane of the paper.)","A
B
C
D
None of these are correct",A,"CU Boulder PHYS 1120 Spring 2003 Exam 03 #06",,CB,PHYS,1120,2003,FR,03,06,PHYS1120CBFR030306Q.png,
"A block of mass \(m\), with a net positive charge \(q\), is placed on a
\(\underline{frictionless}\) plane inclined at an angle \(θ\). A uniform horizontal
external electric field of magnitude \(E\) is applied in the direction
shown. How big does the electric field have to be so that the mass \(m\)
starts to move up the incline? The E-field must be bigger than","\(\Large\frac{mg\tan \theta}{q}\)
\(\Large \frac{q\cos \theta}{mg}\)
\(\Large \frac{q}{mg \sin \theta}\)
\(\Large \frac{mg \cos \theta}{q}\)
None of these","\(\Large\frac{mg\tan \theta}{q}\)","CU Boulder PHYS 1120 Spring 2003 Exam 03 #07",,CB,PHYS,1120,2003,FR,03,07,PHYS1120CBFR030307Q.png,
"A hairdryer with resistance R is
plugged into a standard 120VAC wall
socket (the \(rms\) voltage is 120V). The
current through the hairdryer as a
function of time is shown. Note that
each tick mark along the y-axis is \(2 A\).
What is the resistance \(R\) of the
hairdryer (to two-place precision)?","12 \(\Omega\)
24 \(\Omega\)
17 \(\Omega\)
0.059 \(\Omega\)
60 \(\Omega\)","17 \(\Omega\)","CU Boulder PHYS 1120 Spring 2003 Exam 03 #08",,CB,PHYS,1120,2003,FR,03,08,PHYS1120CBFR030308Q.png,
"A long straight wire, carrying a current \(I\), passes through
the center of a circular wire loop. The wire loop is in the
plane of the page, the straight wire is perpendicular to the
page, and current is going into the page and is decreasing.
The current induced in the wire loop is ...","counter-clockwise
clockwise
zero",zero,"CU Boulder PHYS 1120 Spring 2003 Exam 03 #09",,CB,PHYS,1120,2003,FR,03,09,PHYS1120CBFR030309Q.png,
"As indicated in the diagram, the magnetic field in a certain region
is given by \(B( x , y ) = Ay\widehat{x}\) where \(A\) is a positive constant. Consider the
imaginary loop shown. What can you say about the current through the
loop?","The current through the loop must be zero.
There must be a non-zero current through the loop coming out of the page.
There must be a non-zero current through the loop going into the page.
You can say nothing about the current through the loop, on the basis on of the information given.","There must be a non-zero current through the loop going into the page.","CU Boulder PHYS 1120 Spring 2003 Exam 03 #10",,CB,PHYS,1120,2003,FR,03,10,PHYS1120CBFR030310Q.png,
"The diagram shows the equipotential lines of a
point charge located at the origin. Note that the tic
marks show \(1\: m\) spacing. What is the value of the
charge?","1 \(\mu\)C
1 mC
\(10^6\: C\)
\(3.3 \times 10^{-10}\)C
None of these","1 \(\mu\)C","CU Boulder PHYS 1120 Spring 2003 Exam 03 #11",,CB,PHYS,1120,2003,FR,03,11,PHYS1120CBFR030311Q.png,
"Two positive charges and a negative charge, all of
equal magnitude \((+Q,\:\: +Q,\:\: and\:\: –Q)\) are located at the
three corners of a square of edge length \(r\). The origin
is the fourth corner of the square. \(\underline{At\:\: the\:\: origin}\), what
is the direction of the electric field?","\(\nwarrow\)
\(\nearrow\)
\(\swarrow\)
\(\searrow\)
None of these; either the field is zero, or it points in some other direction","\(\swarrow\)","CU Boulder PHYS 1120 Spring 2003 Exam 03 #12",,CB,PHYS,1120,2003,FR,03,12,PHYS1120CBFR030312Q.png,
"The same current \(I\) is flowing through solenoid A and
solenoid B, which both have circular cross section. The
solenoids have the same length, but solenoid A has twice the
diameter and twice the number of turns as solenoid B. What
is the ratio of the magnetic energy contained in solenoid A to that in solenoid B, that is, what is \(\Large \frac{U_A}{U_B}\)?<br><br>

(Hint: for a solenoid \(B=\mu_o nI\))","2
4
8
16
None of these",16,"CU Boulder PHYS 1120 Spring 2003 Exam 03 #13",,CB,PHYS,1120,2003,FR,03,13,PHYS1120CBFR030313Q.png,
"A coaxial cable consists of an inner solid wire with radius \(R\) and an outer cylindrical wire with inner radius \(2R\) and outer radius \(3R\) . The inner wire carries total current \(I\) into the page and the outer cylindrical wire carries the same magnitude current \(I\) out of the
page. Both wires have uniform current density.<br><br>

What is the magnitude of the magnetic field B at the inner
surface of the inner wire, that is, at \(r = 2R\)?","zero
\(\Large \frac{\mu_o I}{2\pi R}\)
\(\Large \frac{\mu_o I}{4\pi R}\)
\(\Large \frac{3\mu_o I}{2\pi R}\)
None of these","\(\Large \frac{\mu_o I}{4\pi R}\)","CU Boulder PHYS 1120 Spring 2003 Exam 03 #14",,CB,PHYS,1120,2003,FR,03,14,PHYS1120CBFR030314Q.png,
"A coaxial cable consists of an inner solid wire with radius \(R\) and an outer cylindrical wire with inner radius \(2R\) and outer radius \(3R\) . The inner wire carries total current \(I\) into the page and the outer cylindrical wire carries the same magnitude current \(I\) out of the
page. Both wires have uniform current density.<br><br>

What is the magnitude of the magnetic field B at the surface of the outer wire, that is,
at \(r = 3R\)?","zero
\(\Large \frac{\mu_o I}{6\pi R}\)
\(\Large \frac{\mu_o I}{3\pi R}\)
\(\Large \frac{3\mu_o I}{2\pi R}\)",zero,"CU Boulder PHYS 1120 Spring 2003 Exam 03 #15",,CB,PHYS,1120,2003,FR,03,15,PHYS1120CBFR030315Q.png,
"A single circular loop of wire of radius \(R\) surrounds a long solenoid of radius \(r\), turns per length \(n\), carrying a current \(I\). Note that \(r < R\). The diagram shows the end-on view of the situation. What is the magnetic flux through the single wire loop?","\(\mu_o nI \pi R^2\)
\(\Large \frac{\mu_o Ir^2}{2R}\)
\(\pi R^2 \Large \frac{\mu_o I}{2\pi r}\)
\(\mu_o nI \pi r^2\)
None of these","\(\mu_o nI \pi r^2\)","CU Boulder PHYS 1120 Spring 2003 Exam 03 #16",,CB,PHYS,1120,2003,FR,03,16,PHYS1120CBFR030316Q.png,
"A single-turn coil of wire with area \(A = 0.010\: m^2\) is rotating in a uniform, constant
external magnetic field B. The magnetic flux
\(\phi\) through the coil as a function of time is
shown in the figure. What is the maximum
magnitude of the emf across the coil (to
within 30%)?","1 V
zero
4 V
0.3 V
None of these","4 V","CU Boulder PHYS 1120 Spring 2003 Exam 03 #17",,CB,PHYS,1120,2003,FR,03,17,PHYS1120CBFR030317Q.png,
"A loop of wire is falling straight down in a uniform magnetic, as shown. The
magnetic force on the loop is","upward \(\uparrow\)
downward \(\downarrow\)
right \(\rightarrow\)
left \(\leftarrow\)
zero",zero,"CU Boulder PHYS 1120 Spring 2003 Exam 03 #18",,CB,PHYS,1120,2003,FR,03,18,PHYS1120CBFR030318Q.png,
"Two circular loops of wire lie in the same plane, as shown,
with loop 2 just inside loop 1. A current in the outer loop (1) is
counterclockwise (CCW), and is \(\underline{increasing}\) at a steady rate. The
current induced in loop 2 is ..","zero
clockwise \(\circlearrowright\)
counter-clockwise \(\circlearrowleft\)","clockwise \(\circlearrowright\)","CU Boulder PHYS 1120 Spring 2003 Exam 03 #19",,CB,PHYS,1120,2003,FR,03,19,PHYS1120CBFR030319Q.png,
"Three parallel wires each carry a current of the same magnitude \(I\).
The 3 wires are perpendicular to the xy plane and form a
square of edge length \(r\) with the origin, as shown in the
diagram. Two of the currents are into the page, and one
current is out of the page.<br><br>

What is the direction of the magnetic field at the origin?","\(\nwarrow\)
\(\nearrow\)
\(\swarrow\)
\(\searrow\)
None of these; either the B-field is zero at the origin or has some other direction","\(\nwarrow\)","CU Boulder PHYS 1120 Spring 2003 Exam 03 #20",,CB,PHYS,1120,2003,FR,03,20,PHYS1120CBFR030320Q.png,
"Three
parallel wires each carry a current of the same magnitude \(I\).
The 3 wires are perpendicular to the xy plane and form a
square of edge length \(r\) with the origin, as shown in the
diagram. Two of the currents are into the page, and one
current is out of the page.

What is the magnitude of the B-field at the \(center\) of the square (not at the origin)?","\(\Large \frac{3\mu_o I}{2\pi r}\)
\(\Large \frac{3\mu_o I}{\sqrt{2}\pi r}\)
\(\Large \frac{\mu_o I}{\sqrt{2}\pi r}\)
\(\Large \frac{\mu_o I}{3\pi r}\)
None of these","\(\Large \frac{\mu_o I}{\sqrt{2}\pi r}\)","CU Boulder PHYS 1120 Spring 2003 Exam 03 #21",,CB,PHYS,1120,2003,FR,03,21,PHYS1120CBFR030321Q.png,
"The switch has been \(\underline{closed}\) for a long time.
Then, at t = 0, the switch is opened.<br><br>

What is the current through the inductor,
immediately after the switch is opened (at \(t = 0+\))?","zero
1 A
2 A
0.5 A
None of these","2 A","CU Boulder PHYS 1120 Spring 2003 Exam 03 #22",,CB,PHYS,1120,2003,FR,03,22,PHYS1120CBFR030322Q.png,
"The switch has been closed for a long time.
Then, at t = 0, the switch is opened.<br><br>

What is the voltage across the inductor immediately after the switch is opened?","zero
10 V
5.0 V
2.5 V
30 V","10 V","CU Boulder PHYS 1120 Spring 2003 Exam 03 #23",,CB,PHYS,1120,2003,FR,03,23,PHYS1120CBFR030323Q.png,
"Two long, straight, parallel vertical wires are carrying current.
The right wire carries a current upward, as shown. There are no other
currents nearby. At a point which between the wires and near the left
wire the magnetic field is zero. What is the \(\underline{direction}\) of the current in
the left wire?","up \(\uparrow\)
down \(\downarrow\)
impossible to tell","up \(\uparrow\)","CU Boulder PHYS 1120 Spring 2003 Exam 03 #24",,CB,PHYS,1120,2003,FR,03,24,PHYS1120CBFR030324Q.png,
"A wire carrying a current \(I\) is in a uniform magnetic
field (caused by an external magnet not shown in the
diagram) . The current \(I\) and the B-field have the same
direction, as shown. The force on the wire due to the
magnetic field is.","right \(\rightarrow\)
left \(\leftarrow\)
up \(\uparrow\)
down \(\downarrow\)
zero",zero,"CU Boulder PHYS 1120 Spring 2003 Exam 03 #25",,CB,PHYS,1120,2003,FR,03,25,PHYS1120CBFR030325Q.png,
"A balloon of mass \(M\) has been positively charged ( its
charge is \(+Q\)) and is held up to the ceiling.
The ceiling polarizes, so the balloon sticks to it.
The friction coefficient between the balloon and the ceiling is
\(μ\), and we will assume that the electric field, E, created by the
ceiling is uniform and directed upwards.
What is the (minimum) magnitude \(E\) of this electric field?","\(E=\mu Q/Mg\)
\(E=Mg/ \mu Q\)
\(E=\mu Mg/Q\)
\(E=Q/Mg\)
\(E=Mg/Q\)","\(E=Mg/Q\)","CU Boulder PHYS 1120 Fall 2007 Exam FE #01",,CB,PHYS,1120,2007,HB,FE,01,PHYS1120CBHB07FE01Q.png,
"Two positively charged particles, labeled 1 and 2, are placed a distance R apart in empty space and are released from rest.<br>
Particle 1 has mass m and charge +Q;<br>
particle 2 has mass 2m and charge +Q/2.<br>
Each particle feels only the static Coulomb force due to the other particle. (There is no
gravity, no friction, nor any other forces in this problem.)
<br><br>
How do the magnitudes of the initial accelerations of the two particles compare?<br>
\(a_1\) = magnitude of initial acceleration of particle 1
\(a_2\) = magnitude of initial acceleration of particle 2","\(a_1=2a_2\)
\(a_1=(1/2)a_2\)
\(a_1=4a_2\)
\(a_1=a_2\)
None of these","\(a_1=2a_2\)","CU Boulder PHYS 1120 Fall 2007 Exam FE #02",,CB,PHYS,1120,2007,HB,FE,02,PHYS1120CBHB07FE02Q.png,
"Two positively charged particles, labeled 1 and 2, are placed a distance R apart in empty space and are released from rest.<br>
Particle 1 has mass m and charge +Q;<br>
particle 2 has mass 2m and charge +Q/2.<br>
Each particle feels only the static Coulomb force due to the other particle. (There is no
gravity, no friction, nor any other forces in this problem.)
<br><br>
As the particles continue to move apart after release, the \(speed\) of each particle...","decreases as time goes by
increases as time goes by
stays the same","increases as time goes by","CU Boulder PHYS 1120 Fall 2007 Exam FE #03",,CB,PHYS,1120,2007,HB,FE,03,PHYS1120CBHB07FE03Q.png,
"Two negative charges are each located a distance r from the
origin, as shown.
Note that the upper charge is twice as strong as the one to
the right. (-2Q compared to -Q)<br><br>


\(At\:\:the\:\:origin\), the direction of the \(\underline{electric\:\:field}\) is...","Up and right at exactly a 45 degree angle to the +x axis.
Down and left at exactly a 45 degree angle to the -x axis.
Straight up the page
The field has no direction, because the field is zero
None of these: the field points in some other direction than the choices given above","None of these: the field points in some other direction than the choices given above","CU Boulder PHYS 1120 Fall 2007 Exam FE #04",,CB,PHYS,1120,2007,HB,FE,04,PHYS1120CBHB07FE04Q.png,
"Two negative charges are each located a distance r from the
origin, as shown.
Note that the upper charge is twice as strong as the one to
the right. (-2Q compared to -Q)<br><br>
(Assume, as usual, that Voltage is zero at infinity.) \(\underline{At\:\:the\:\: origin}\)
given the charge configuration above, the VOLTAGE is...","+kQ/r
-kQ/r
-2kQ/r
-3kQ/r
None of these choices is correct",-3kQ/r,"CU Boulder PHYS 1120 Fall 2007 Exam FE #05",,CB,PHYS,1120,2007,HB,FE,05,PHYS1120CBHB07FE05Q.png,
"A small plastic bead has a \(+q\) charge on its
bottom side and a \(–q\) charge on its top side (it’s a
permanent electric dipole).
The bead is placed in an electric field represented by
the field line diagram shown.
At the instant shown in the diagram, what is the
direction of the net force on the bead due to this
Electric field?","the net force is zero 
right \(\rightarrow\)
left \(\leftarrow\)
down \(\downarrow\)
up \(\uparrow\)","up \(\uparrow\)","CU Boulder PHYS 1120 Fall 2007 Exam FE #06",,CB,PHYS,1120,2007,HB,FE,06,PHYS1120CBHB07FE06Q.png,
"Point \(P\) is located exactly midway between two charged
objects, each of which has identical charge \(+Q\). The object on
the left is a thin insulating rod, oriented vertically. This rod
has its total charge \((+Q)\) spread out uniformly along it.
The object on the right is a simple pointlike charge, \(+Q\).
Point \(P\) is on the centerline, as shown.
What is the direction of the electric field at point \(P\), midway
between the rod and the point?","No direction because the E-field is zero at point P
to the right \(\rightarrow\)
to the left \(\leftarrow\)
None of the above: the correct direction is not given","to the left \(\leftarrow\)","CU Boulder PHYS 1120 Fall 2007 Exam FE #07",,CB,PHYS,1120,2007,HB,FE,07,PHYS1120CBHB07FE07Q.png,
"You have two objects (labeled #1 and #2), both with charges \(-Q\), fixed on the x-axis
at x=-d and x=+d respectively. (Define voltage to be zero off at infinity)
There are no other charges anywhere. At the origin, halfway between the charges, what
can you say about the magnitude of the electric field, and the voltage?","\(|E|=0,\:\:\:\:V=0\)
\(|E|\:\: is\:\: not\:\: zero,\:\:\:\:V=0\)
\(|E|=0,\:\:\:\:V\:\:is\:\:not\:\:0\)
\(|E|\:\: is\:\: not\:\: zero,\:\:\:\:V=0\)
Not enough information to decide","\(|E|=0,\:\:\:\:V\:\:is\:\:not\:\:0\)","CU Boulder PHYS 1120 Fall 2007 Exam FE #08",,CB,PHYS,1120,2007,HB,FE,08,PHYS1120CBHB07FE08Q.png,
"An ohm-meter measures the resistance between points a and b in the arrangement of 4 resistors shown. All four resistors are identical, with \(R=6.0 \Omega\). What is the measured resistance between a and b?","The meter would read infinity, because this is not a complete circuit.
The meter would read 0 \(\Omega\), this is not a complete circuit.
24 \(\Omega\)
8.0 \(\Omega\)
6.5 \(\Omega\)","8.0 \(\Omega\)","CU Boulder PHYS 1120 Fall 2007 Exam FE #09",,CB,PHYS,1120,2007,HB,FE,09,PHYS1120CBHB07FE09Q.png,
"There are two ideal batteries (voltage \(V\) each), and
three identical ideal bulbs. Initially the capacitor is
uncharged, and the switch is open.

Immediately after the switch is closed, the absolute value of the voltage difference accros bulb #1 is equal to:","2V
4V/3
V
2V/3
zero",V,"CU Boulder PHYS 1120 Fall 2007 Exam FE #10",,CB,PHYS,1120,2007,HB,FE,10,PHYS1120CBHB07FE10Q.png,
"There are two ideal batteries (voltage \(V\) each), and three identical ideal bulbs. Initially the capacitor is uncharged, and the switch is open. \(A \:\:very\:\: long\:\: time\:\: after\) the switch is closed, the absolute value of the voltage difference \(across\:\:the\:\:capacitor\) is equal to:","2V
4V/3
V
2V/3
zero",2V/3,"CU Boulder PHYS 1120 Fall 2007 Exam FE #11",,CB,PHYS,1120,2007,HB,FE,11,PHYS1120CBHB07FE11Q.png,
"An ideal battery is attached to three identical
ideal bulbs, as shown in the circuit to the right.
A switch in parallel with bulb 3 is originally
open and is then closed.
When the switch is closed, what happens to the
brightness of bulbs 1 and 2?","#1 brightens, #2 brightens
#1 brightens, #2 stays same
#1 stays same, #2 stays same
#1 stays same, #2 brightens
None of these are correct","#1 stays same, #2 brightens","CU Boulder PHYS 1120 Fall 2007 Exam FE #12",,CB,PHYS,1120,2007,HB,FE,12,PHYS1120CBHB07FE12Q.png,
"This circuits shown below has five identical ideal light bulbs (labeled 1-5). Rank the 5 bulbs from brightest to dimmest (HINT: look carefully at the figure!)","1 = 5 > 2 > 3 = 4
1 > 2 > 3 = 4 > 5
1 > 2 > 5 > 3 = 4
1 > 2 = 3 = 4 > 5
None of these are correct!","1 > 2 > 5 > 3 = 4",,,CB,PHYS,1120,2007,HB,FE,13,PHYS1120CBHB07FE13Q.png,
"Which schematic diagram best represents the realistic circuit shown below","A
B
C
D
None of these four schematic circuit choices is equivalent to the ""realistic"" one!",A,"CU Boulder PHYS 1120 Fall 2007 Exam FE #14",,CB,PHYS,1120,2007,HB,FE,14,PHYS1120CBHB07FE14Q123.png,
"A cubical box of edge length \(L=2\) meters is placed so that its edges are parallel to the coordinate axes, as shown. The space in and around the box is filled with an electric field \(r\) given by
\[ \vec{E}=Ai+Bk\]
where \(A=1\) N/C (newtons per coulomb) \(B=3\) N/C (i and k are usual unit vectors, pointing in x and z directions repectively) In SI units, what is the magnitude of the electric flux through the top shaded surface (the surface at z = +2 m)?","zero
3
6
12
None of these",12,"CU Boulder PHYS 1120 Fall 2007 Exam FE #15",,CB,PHYS,1120,2007,HB,FE,15,PHYS1120CBHB07FE15Q.png,
"A cubical box of edge length \(L=2\) meters is placed so that
its edges are parallel to the coordinate axes, as shown.
The space in and around the box is filled with an electric
field \(r\) given by \[\vec{E}=Ai+Bk\]

where \(A = 1\) N/C (newtons per coulomb), \(B=3\) N/C.
(i and k are usual unit vectors, pointing in x and z
directions respectively)<br><br>

The total electric charge enclosed by the cubical box is...","zero
positive
negative
Not enough info to answer the question!",zero,"CU Boulder PHYS 1120 Fall 2007 Exam FE #16",,CB,PHYS,1120,2007,HB,FE,16,PHYS1120CBHB07FE16Q.png,
"How does the electric flux through the surface in case (II) compare with the electric flux through the surface in case (I)?<br><br>
I. a positive charge \(+Q\) is surrounded by a spherical Gaussian surface of diameter \(R\).<br>
II. \(two\) charges, each \(+Q\), are enclosed by a spherical Gaussian surface of diameter \(2R\).<br>

\[\Large \frac{\phi_E(through\:\:surface\:\:II)}{\phi_E(through\:\:surface\:\:I)}=\]","1
2
4
8
16",2,"CU Boulder PHYS 1120 Fall 2007 Exam FE #17",,CB,PHYS,1120,2007,HB,FE,17,PHYS1120CBHB07FE17Q.png,
"A long straight wire, carrying a current \(I\) to the right, is located below a stationary
rectangular conducting loop. The straight wire and loop are in the same plane, and the
entire straight wire is moving downward, away from the loop, with speed \(v\), as shown. The induced current in the stationary rectangular loop is...","zero
clockwise
counter-clockwise",counter-clockwise,"CU Boulder PHYS 1120 Fall 2007 Exam FE #18",,CB,PHYS,1120,2007,HB,FE,18,PHYS1120CBHB07FE18Q.png,
"The same current I is flowing through two long (ideal) solenoids, labeled A and B, which both have circular cross section. Solenoid B has twice the diameter of A, half the length of
A, and half as many turns (coils) as A.<br><br>

What is the ratio of the total magnetic energy contained in
solenoid B to that in solenoid A, that is, what is \(\frac{U_B}{U_A}\) ? (Hint: for a solenoid 
\(B=\mu_o nI\))","1 (total stored magnetic energy is same in each)
2
4
8
None of these are correct",2,"CU Boulder PHYS 1120 Fall 2007 Exam FE #19",,CB,PHYS,1120,2007,HB,FE,19,PHYS1120CBHB07FE19Q.png,
"An electron and a proton, both with the same initial velocity \(v_o\) ,
enter a region with a uniform magnetic field \(B\) into the page, as shown. Each one undergoes semi-circular motion in the field and exits the field some distance \(d\) from the entry point.
(The diagram shows the path for just one of the two particles.) Consider the following statements, and decide if they are T or F.<br><br>

I. The particle shown in the picture must be the negative one (the electron)<br>
II. The distance \(d\) for the proton will be greater than \(d\) for the electron.","Both I and II are true
I is true, but II is false
I is false, but II is true
Both I and II are false","Both I and II are true","CU Boulder PHYS 1120 Fall 2007 Exam FE #20",,CB,PHYS,1120,2007,HB,FE,20,PHYS1120CBHB07FE20Q.png,
"Three ideal polaroid filters, labeled 1, 2, and 3, are placed between a source of
unpolarized light and an observer. As shown, the pass axes of the three filters are at
angles of \(0^o ,\:\: 60^o,\:\: and\:\: 90^o\) relative to the vertical.
The middle filter (2) is then removed. What does the observer see?","No light when filter 2 is present and some light when filter 2 is removed.
Some light when filter 2 is present and no light when filter 2 is removed.
No light when filter 2 is present and still no light when filter 2 is removed.
Some light when filter 2 is present and more light when filter 2 is removed.
Some light when 2 is present and the same amount of light when filter 2 is removed.","Some light when filter 2 is present and no light when filter 2 is removed.","CU Boulder PHYS 1120 Fall 2007 Exam FE #21",,CB,PHYS,1120,2007,HB,FE,21,PHYS1120CBHB07FE21Q.png,
"A very large (effectively infinite) plastic slab of thickness \(T\) has a uniform positive charge density \(ρ\) (charge per volume, \(C/m^3\) ). A student wishes to compute the magnitude \(E\) of the electric field at a distance \(d\:\: (d > \large \frac{T}{2})\) from the center of the slab. The student writes down Gauss’s Law \(\unicode{x222F} E\cdot dA=\large \frac{Q_{enc}}{\large \varepsilon_o}\), and sketches the centered, cylindrical Gaussian surface shown (dashed). The cylinder has length \(2d\) and end caps each of area \(A=πr^2\). What is the correct expression for the charge \(Q_{enclosed}=\)?","\(AT\rho\)
\(2A\rho\)
\(2Ad\rho\)
\(2AT\rho\)
\(A\rho\)","\(AT\rho\)","CU Boulder PHYS 1120 Fall 2007 Exam FE #22",,CB,PHYS,1120,2007,HB,FE,22,PHYS1120CBHB07FE22Q.png,
"The equipotential surfaces in a region of space are indicated in the diagram below.
A proton is released from rest at point \(X\). What does the proton do? (neglect gravity)","accelerates to the right
accelerates to the left
remains at rest
it drifts up (or down) along the line of constant voltage it starts on
it accelerates down along the line of constant voltage it starts on","accelerates to the left","CU Boulder PHYS 1120 Fall 2007 Exam FE #23",,CB,PHYS,1120,2007,HB,FE,23,PHYS1120CBHB07FE23Q.png,
"A long straight wire, carrying a current \(I\), passes through the
center of a circular wire loop. The wire loop is in the plane of the
page, and the straight wire is perpendicular to the page.
The current is going into the page and is increasing.
The current \(induced\) in the wire loop is ..","clockwise
counter-clockwise
zero",zero,"CU Boulder PHYS 1120 Fall 2007 Exam FE #25",,CB,PHYS,1120,2007,HB,FE,25,PHYS1120CBHB07FE25Q.png,
"A 1200W hairdryer (this refers to the average power of the hairdryer) is designed to
be plugged into a standard 120V electrical outlet. What is the maximum number of such
hair dryers that can be plugged in and turned on without tripping the breaker in a circuit
that has a 15 A breaker switch?<br>
Hint: A 15A breaker switch will interrupt the current if the total rms current exceeds 15A.","80
10
4
2
1",1,"CU Boulder PHYS 1120 Fall 2007 Exam FE #26",,CB,PHYS,1120,2007,HB,FE,26,,
"A transformer at a power station is designed to step up the voltage from 120 V (RMS, AC) to 1200 V (RMS, AC). The voltage oscillates with a frequency of 60 Hz.<br>
If the primary (input) side is a coil with 100 turns, how many turns should the secondary (output) side have?","10 turns
20 turns
1000 turns
1200 turns","1000 turns","CU Boulder PHYS 1120 Fall 2007 Exam FE #27",,CB,PHYS,1120,2007,HB,FE,27,,
"A transformer at a power station is designed to step up the voltage from 120 V (RMS, AC) to 1200 V (RMS, AC). The voltage oscillates with a frequency of 60 Hz.<br>
If the station delivers an average power of 120 MW (that's MegaWatts), what is the maximum instantaneous current flowing out of the secondary side?<br> (Answer to two place precision)","120 kA
71 kA
100 kA
140 kA
None of these are correct!","140 kA","CU Boulder PHYS 1120 Fall 2007 Exam FE #28",,CB,PHYS,1120,2007,HB,FE,28,,
"If you halve the period, \(T\) of a traveling electromagnetic wave in vacuum, what
happens to the wavelength of that wave?","wavelength is the same, it is independent of period.
wavelength increases by a factor of 2.
wavelength increases by a factor of 4
wavelength decreases by a factor of 2
wavelength decreases by a factor of 4.","wavelength decreases by a factor of 2","CU Boulder PHYS 1120 Fall 2007 Exam FE #29",,CB,PHYS,1120,2007,HB,FE,29,,
"A coil of wire with \(N=100\) turns and area \(A = 0.10\:m\) is oriented so
that its plane is perpendicular to a uniform magnetic field \(B\) which is
increasing at a rate of \(0.010\:T/s\). The coil is connected to a resistor \(R = 10Ω\).
What is the power dissipated in the resistor at the moment when \(B = 0.1\: T\)?","0.1 W
\(10^{-2}\) W
\(10^{-3}\) W
\(10^{-4}\) W
None of these","\(10^{-3}\) W","CU Boulder PHYS 1120 Fall 2007 Exam FE #30",,CB,PHYS,1120,2007,HB,FE,30,PHYS1120CBHB07FE30Q.png,
"A ""coaxial cable"" consists of a long inner solid wire with radius \(R\), and an outer (hollow) cylindrical wire with inner radius \(2R\) and outer radius \(3R\) . The inner wire carries total current \(I\) into the page and the outer (hollow cylindrical) wire carries the same magnitude current \(I\) out of the page. Both wires have uniform current density. What is the magnitude of the magnetic field \(B\) at the surface of the outer wire, that is, at \(r = 3R\)?","\(\Large \frac{\mu_o I}{2\pi R}\)
\(\Large \frac{\mu_o I}{6\pi R}\)
\(\Large \frac{\mu_o I}{\pi R}\)
zero
None of these",zero,"CU Boulder PHYS 1120 Fall 2007 Exam FE #31",,CB,PHYS,1120,2007,HB,FE,31,PHYS1120CBHB07FE31Q1.png,
"An electron (charge -e) is released \(\underline{from\:\: rest}\) in a region
where there is a uniform E-field and a uniform B-field,
\(both\) are pointing along the +x-direction; that is,
\(E=E_x i ,\:\: B = B_x i\). What is the path of the electron after its release?","Left and curving upwards
Left and curving downwards
straight left \(\leftarrow\) , along the –x direction, forever 
straight right \(\rightarrow\), along the +x direction, forever
Some other motion","straight left \(\leftarrow\) , along the –x direction, forever ","CU Boulder PHYS 1120 Fall 2007 Exam FE #32",,CB,PHYS,1120,2007,HB,FE,32,PHYS1120CBHB07FE32Q.png,
"An end-on view of a solenoid is shown to the right.
There is a \(decreasing\) clockwise current around the solenoid,
causing a \(decreasing\:\: uniform\) B-field in its interior.
What is the direction of the \(\underline{electric}\) field at the point x inside
the solenoid and directly below the solenoid’s central axis as
shown in the diagram?","left\(\leftarrow\)
right\(\rightarrow\)
up\(\uparrow\)
down\(\downarrow\)
zero","left\(\leftarrow\)","CU Boulder PHYS 1120 Fall 2007 Exam FE #33",,CB,PHYS,1120,2007,HB,FE,33,PHYS1120CBHB07FE33Q.png,
"A small elliptical shaped wire loop is carrying a current \(I\)
which is increasing in time. Above it and below it are two
small circular conducting loops, labeled 1 and 2, as shown.
All three loops are FLAT and lie in the plane of the page.
The currents \(induced\) in loops 1 and loop 2 are","both clockwise
both counterclockwise
both zero
clockwise in loop 1, but counterclockwise in loop 2
counterclockwise in loop 1, but clockwise in loop 2","both counterclockwise","CU Boulder PHYS 1120 Fall 2007 Exam FE #34",,CB,PHYS,1120,2007,HB,FE,34,,
"Which one of the follow statements is correct (only one is correct!)?","The magnetic force on a charged particle may change its kinetic energy
A test charge released from rest will always initially move along a B-field line.
Where the B-field lines are most dense, the magnitude of the magnetic field is largest
The net magnetic flux through a closed surface may be non-zero
B-field lines may cross","Where the B-field lines are most dense, the magnitude of the magnetic field is largest","CU Boulder PHYS 1120 Fall 2007 Exam FE #35",,CB,PHYS,1120,2007,HB,FE,35,,
"Two charges, labeled 1 and 2, with charges \(+Q\) and \(–Q\),
are a fixed distance apart. A metal cube, with no net charge on it, is placed between the
charges, as shown in the diagram. What happens to the magnitude of the net force on charge 1 when the cube is placed between the charges.","net force on 1 is unchanged
net force on 1 decreases to zero
net force on 1 decreases (but remains non-zero)
net force on 1 increases
we cannot decide if we do not know the numerical magnitude of the charge \(Q\)","net force on 1 increases","CU Boulder PHYS 1120 Fall 2007 Exam FE #36",,CB,PHYS,1120,2007,HB,FE,36,PHYS1120CBHB07FE36Q.png,
"A circuit consists of a battery, two resistors, an inductor
and a switch as shown. Initially the switch is open and has
been open for a long time<br><br>

The switch is closed. Immediately after the switch is
closed, what is the magnitude of the current that flows
\(through\:\: the\:\: battery\)?
","0 A
0.5 A
1 A
2 A
None of these are correct","1 A","CU Boulder PHYS 1120 Fall 2007 Exam FE #37",,CB,PHYS,1120,2007,HB,FE,37,PHYS1120CBHB07FE37Q.png,
"A circuit consists of a battery, two resistors, an inductor
and a switch as shown. Initially the switch is open and has
been open for a long time<br><br>


After a very long time, what is the magnitude of the current \(through\:\: the\:\: battery\)?","0 A
0.5 A
1 A
2 A
None of these are correct","2 A","CU Boulder PHYS 1120 Fall 2007 Exam FE #38",,CB,PHYS,1120,2007,HB,FE,38,PHYS1120CBHB07FE38Q.png,
"The switch is closed. Immediately after the switch is
closed, what is the magnitude of the current that flows
through the battery?<br><br>

After being left closed for a very long time, the switch is opened again.
Immediately after the switch is re-opened, describe the current flowing the \(rightmost\:\:
resistor\), labeled \(R_2\) .","1 A flowing up \(\uparrow\)
1 A flowing down \(\downarrow\)
1 A flowing up \(\uparrow\)
1 A flowing down \(\downarrow\)
0 no current flows through \(R_2\) at that instant","1 A flowing up \(\uparrow\)","CU Boulder PHYS 1120 Fall 2007 Exam FE #39",,CB,PHYS,1120,2007,HB,FE,39,PHYS1120CBHB07FE39Q.png,
"A long solenoid with many turns per length has a
uniform magnetic field \(B\) within its interior.
Consider the imaginary rectangular path of length \(c\)
and width \(a\) with the bottom edge entirely within the
solenoid, as shown. What is the integral of \(\oint \vec{B} • d \vec{L}\) around this
rectangular path in the counterclockwise direction?","0
2Bc
2B(c+a)
Bac
Bc",Bc,"CU Boulder PHYS 1120 Fall 2007 Exam FE #40",,CB,PHYS,1120,2007,HB,FE,40,PHYS1120CBHB07FE40Q.png,
"A coil of wire carrying current \(I\) can rotate freely
about an axis in a uniform magnetic field.
The coil is in the plane of the page, and the magnetic
field is directed from left to right as shown.
If released from rest in the position shown, which
way does it rotate?","the right side will rotate out of the page
the left side will rotate out of the page
the loop will not rotate at all, but it will feel a net force to the right
the loop will not rotate at all, and it will feel zero net force
the loop will not rotate at all, and it will feel a net force up the page","the left side will rotate out of the page","CU Boulder PHYS 1120 Fall 2007 Exam FE #41",,CB,PHYS,1120,2007,HB,FE,41,PHYS1120CBHB07FE41Q.png,
"An electromagnetic plane wave, given by \(E(x, y,z) = E_o \widehat{z}\sin (kx +\omega t)\), propagates to the left.<br>
The figure represents this wave at a particular instant in time. Four points in space are labeled I,J,K, and L.<br>
All four points lie in the x-y plane and have the same x-coordinate.<br>
(Note the orientation of the E- and B-fields: the E- field oscillates in the x-z plane; the B-field oscillates in the x-y plane )<br><br>
For the instant shown, rank the magnitudes of the electric field at the four points, from largest to smallest.","\(E_I > E_J > E_K > E_L\)
\(E_J > E_I > E_K > E_L\)
\(E_J > E_I = E_K > E_L\)
\(E_L > E_I = E_K > E_L\)
\(E_I = E_J = E_K = E_L\)","\(E_I = E_J = E_K = E_L\)","CU Boulder PHYS 1120 Fall 2007 Exam FE #42",,CB,PHYS,1120,2007,HB,FE,42,PHYS1120CBHB07FE42Q.png,
